<?xml version="1.0" encoding="UTF-8" standalone="no"?>
<!DOCTYPE svg PUBLIC "-//W3C//DTD SVG 1.1//EN"
 "http://www.w3.org/Graphics/SVG/1.1/DTD/svg11.dtd">
<!-- Generated by graphviz version 2.40.1 (20161225.0304)
 -->
<!-- Title: dependencies Pages: 1 -->
<svg width="504pt" height="211pt"
 viewBox="0.00 0.00 504.00 211.00" xmlns="http://www.w3.org/2000/svg" xmlns:xlink="http://www.w3.org/1999/xlink">
<g id="graph0" class="graph" transform="scale(1 1) rotate(0) translate(4 207)">
<title>dependencies</title>
<polygon fill="#ffffff" stroke="transparent" points="-4,4 -4,-207 500,-207 500,4 -4,4"/>
<text text-anchor="start" x="227.0091" y="-42.4" font-family="sans-serif" font-weight="bold" font-size="14.00" fill="#000000">Legend</text>
<polygon fill="#ffffb3" stroke="transparent" points="14,-10 14,-30 34,-30 34,-10 14,-10"/>
<text text-anchor="start" x="37.629" y="-15.4" font-family="sans-serif" font-size="14.00" fill="#000000"> &#160;Declarations</text>
<polygon fill="#8dd3c7" stroke="transparent" points="127,-10 127,-30 147,-30 147,-10 127,-10"/>
<text text-anchor="start" x="150.7251" y="-15.4" font-family="sans-serif" font-size="14.00" fill="#000000"> &#160;Module</text>
<polygon fill="#80b1d3" stroke="transparent" points="213,-10 213,-30 233,-30 233,-10 213,-10"/>
<text text-anchor="start" x="236.7812" y="-15.4" font-family="sans-serif" font-size="14.00" fill="#000000"> &#160;Bootstrap</text>
<polygon fill="#fdb462" stroke="transparent" points="310,-10 310,-30 330,-30 330,-10 310,-10"/>
<text text-anchor="start" x="333.6732" y="-15.4" font-family="sans-serif" font-size="14.00" fill="#000000"> &#160;Providers</text>
<polygon fill="#fb8072" stroke="transparent" points="406,-10 406,-30 426,-30 426,-10 406,-10"/>
<text text-anchor="start" x="429.7258" y="-15.4" font-family="sans-serif" font-size="14.00" fill="#000000"> &#160;Exports</text>
<g id="clust1" class="cluster">
<title>cluster_UserBottomListModule</title>
<polygon fill="none" stroke="#000000" stroke-dasharray="1,5" points="58,-70 58,-195 438,-195 438,-70 58,-70"/>
</g>
<g id="clust2" class="cluster">
<title>cluster_UserBottomListModule_declarations</title>
<polygon fill="none" stroke="#000000" points="242,-78 242,-130 430,-130 430,-78 242,-78"/>
</g>
<g id="clust4" class="cluster">
<title>cluster_UserBottomListModule_imports</title>
<polygon fill="none" stroke="#000000" points="66,-78 66,-130 234,-130 234,-78 66,-78"/>
</g>
<!-- UserBottomListComponent -->
<g id="node1" class="node">
<title>UserBottomListComponent</title>
<polygon fill="#ffffb3" stroke="#000000" points="421.5462,-122 250.4538,-122 250.4538,-86 421.5462,-86 421.5462,-122"/>
<text text-anchor="middle" x="336" y="-99.8" font-family="Times,serif" font-size="14.00" fill="#000000">UserBottomListComponent</text>
</g>
<!-- UserBottomListModule -->
<g id="node2" class="node">
<title>UserBottomListModule</title>
<polygon fill="#8dd3c7" stroke="#000000" points="317.7632,-187 314.7632,-191 293.7632,-191 290.7632,-187 168.2368,-187 168.2368,-151 317.7632,-151 317.7632,-187"/>
<text text-anchor="middle" x="243" y="-164.8" font-family="Times,serif" font-size="14.00" fill="#000000">UserBottomListModule</text>
</g>
<!-- UserBottomListComponent&#45;&gt;UserBottomListModule -->
<g id="edge1" class="edge">
<title>UserBottomListComponent&#45;&gt;UserBottomListModule</title>
<path fill="none" stroke="#000000" d="M284.0544,-122.1061C284.0544,-122.1061 284.0544,-140.991 284.0544,-140.991"/>
<polygon fill="#000000" stroke="#000000" points="280.5544,-140.9909 284.0544,-150.991 287.5544,-140.991 280.5544,-140.9909"/>
</g>
<!-- AngularMaterialModule -->
<g id="node3" class="node">
<title>AngularMaterialModule</title>
<polygon fill="#8dd3c7" stroke="#000000" points="226.3431,-122 223.3431,-126 202.3431,-126 199.3431,-122 73.6569,-122 73.6569,-86 226.3431,-86 226.3431,-122"/>
<text text-anchor="middle" x="150" y="-99.8" font-family="Times,serif" font-size="14.00" fill="#000000">AngularMaterialModule</text>
</g>
<!-- AngularMaterialModule&#45;&gt;UserBottomListModule -->
<g id="edge2" class="edge">
<title>AngularMaterialModule&#45;&gt;UserBottomListModule</title>
<path fill="none" stroke="#000000" d="M197.27,-122.1061C197.27,-122.1061 197.27,-140.991 197.27,-140.991"/>
<polygon fill="#000000" stroke="#000000" points="193.7701,-140.9909 197.27,-150.991 200.7701,-140.991 193.7701,-140.9909"/>
</g>
</g>
</svg>
